%YAML 1.1
%TAG !u! tag:unity3d.com,2011:
--- !u!114 &11400000
MonoBehaviour:
  m_ObjectHideFlags: 0
  m_CorrespondingSourceObject: {fileID: 0}
  m_PrefabInstance: {fileID: 0}
  m_PrefabAsset: {fileID: 0}
  m_GameObject: {fileID: 0}
  m_Enabled: 1
  m_EditorHideFlags: 0
  m_Script: {fileID: 11500000, guid: e90911e410742a1498a167540c7865bf, type: 3}
  m_Name: sphereSmallPose
  m_EditorClassIdentifier: 
  leftHand:
    inputSource: 1
    thumbFingerMovementType: 0
    indexFingerMovementType: 2
    middleFingerMovementType: 2
    ringFingerMovementType: 2
    pinkyFingerMovementType: 2
    ignoreRootPoseData: 1
    ignoreWristPoseData: 1
    position: {x: 0.015213782, y: -0.030198101, z: -0.09338086}
    rotation: {x: -0.24913077, y: 0.19272214, z: -0.6058171, w: -0.73060095}
    bonePositions:
    - {x: -0, y: 0, z: 0}
    - {x: -0.034037687, y: 0.03650266, z: 0.16472164}
    - {x: -0.012083233, y: 0.028070247, z: 0.025049694}
    - {x: 0.040405963, y: -0.000000051561553, z: 0.000000045447194}
    - {x: 0.032516792, y: -0.000000051137583, z: -0.000000012933195}
    - {x: 0.030463902, y: 0.00000016269207, z: 0.0000000792839}
    - {x: 0.0006324522, y: 0.026866155, z: 0.015001948}
    - {x: 0.074204385, y: 0.005002201, z: -0.00023377323}
    - {x: 0.043930072, y: 0.000000059567498, z: 0.00000018367103}
    - {x: 0.02869547, y: -0.00000009398158, z: -0.00000012649753}
    - {x: 0.022821384, y: -0.00000014365155, z: 0.00000007651614}
    - {x: 0.0021773134, y: 0.007119544, z: 0.016318738}
    - {x: 0.07095288, y: -0.00077883265, z: -0.000997186}
    - {x: 0.043108486, y: -0.00000009950596, z: -0.0000000067041825}
    - {x: 0.033266045, y: -0.00000001320567, z: -0.000000021670374}
    - {x: 0.025892371, y: 0.00000009984198, z: -0.0000000020352908}
    - {x: 0.0005134356, y: -0.0065451227, z: 0.016347693}
    - {x: 0.06587581, y: -0.0017857892, z: -0.00069344096}
    - {x: 0.04069671, y: -0.000000095347104, z: -0.000000022934731}
    - {x: 0.028746964, y: 0.00000010089892, z: 0.000000045306827}
    - {x: 0.022430236, y: 0.00000010846127, z: -0.000000017428562}
    - {x: -0.002478151, y: -0.01898137, z: 0.015213584}
    - {x: 0.0628784, y: -0.0028440945, z: -0.0003315112}
    - {x: 0.030219711, y: -0.00000003418319, z: -0.00000009332872}
    - {x: 0.018186597, y: -0.0000000050220166, z: -0.00000020934549}
    - {x: 0.01801794, y: -0.0000000200012, z: 0.0000000659746}
    - {x: -0.0060591106, y: 0.05628522, z: 0.060063843}
    - {x: -0.04041555, y: -0.043017667, z: 0.019344581}
    - {x: -0.03935372, y: -0.07567404, z: 0.047048334}
    - {x: -0.038340144, y: -0.09098663, z: 0.08257892}
    - {x: -0.031805996, y: -0.08721431, z: 0.12101539}
    boneRotations:
    - {x: -6.123234e-17, y: 1, z: 6.123234e-17, w: -0.00000004371139}
    - {x: -0.078608155, y: -0.92027926, z: 0.3792963, w: -0.055146642}
    - {x: -0.15691666, y: -0.8109243, z: 0.3163923, w: 0.4665564}
    - {x: -0.10599069, y: -0.13542952, z: -0.16062455, w: 0.971918}
    - {x: 0.000000081956394, y: 0.000000014901163, z: -0.15940687, w: 0.987213}
    - {x: -1.3877788e-17, y: -1.3877788e-17, z: -5.551115e-17, w: 1}
    - {x: -0.579653, y: -0.4987229, z: -0.4656608, w: 0.44546372}
    - {x: 0.25301144, y: -0.05963728, z: -0.280757, w: 0.92390704}
    - {x: -0.000000044703473, y: -0.000000029802315, z: -0.38309854, w: 0.9237075}
    - {x: 0.021245092, y: 0.016429713, z: -0.05072005, w: 0.9983518}
    - {x: 6.938894e-18, y: 1.9428903e-16, z: -1.348151e-33, w: 1}
    - {x: -0.5297869, y: -0.48012674, z: -0.4617137, w: 0.5249998}
    - {x: -0.008721916, y: -0.028832128, z: -0.14202303, w: 0.989405}
    - {x: 0.00000016111883, y: 0.000000147149, z: -0.42145973, w: 0.9068472}
    - {x: -0.00000010282224, y: 0.000000077342435, z: -0.24944222, w: 0.96838975}
    - {x: 1.1639192e-17, y: -5.602331e-17, z: -0.040125635, w: 0.9991947}
    - {x: -0.5661268, y: -0.34064105, z: -0.60091394, w: 0.4498518}
    - {x: 0.016374052, y: -0.0053050295, z: -0.15274474, w: 0.98811585}
    - {x: 0.000000053085362, y: -0.00000011920923, z: -0.25177735, w: 0.9677852}
    - {x: 0.00000004543858, y: 0.00000007829677, z: -0.42124534, w: 0.9069468}
    - {x: 6.938894e-18, y: -9.62965e-35, z: -1.3877788e-17, w: 1}
    - {x: -0.51191175, y: -0.25702018, z: -0.695379, w: 0.43397596}
    - {x: 0.20948954, y: -0.09498076, z: -0.24730487, w: 0.94124025}
    - {x: -0.072223485, y: -0.063170806, z: -0.35550475, w: 0.9297363}
    - {x: -0.0197135, y: 0.024837943, z: -0.25686383, w: 0.9659273}
    - {x: 0, y: 0, z: 1.9081958e-17, w: 1}
    - {x: 0.20274544, y: 0.59426665, z: 0.2494411, w: 0.73723847}
    - {x: 0.6235274, y: -0.66380864, z: -0.29373443, w: -0.29033053}
    - {x: 0.6780625, y: -0.6592852, z: -0.26568344, w: -0.18704711}
    - {x: 0.7367927, y: -0.6347571, z: -0.14393571, w: -0.18303718}
    - {x: 0.7584072, y: -0.6393418, z: -0.12667806, w: -0.0036594148}
  rightHand:
    inputSource: 2
    thumbFingerMovementType: 0
    indexFingerMovementType: 2
    middleFingerMovementType: 2
    ringFingerMovementType: 2
    pinkyFingerMovementType: 2
    ignoreRootPoseData: 1
    ignoreWristPoseData: 1
    position: {x: -0.015213782, y: -0.030198101, z: -0.09338086}
    rotation: {x: 0.24913077, y: 0.19272214, z: -0.6058171, w: 0.73060095}
    bonePositions:
    - {x: -0, y: 0, z: 0}
    - {x: -0.034037687, y: 0.03650266, z: 0.16472164}
    - {x: -0.012083233, y: 0.028070247, z: 0.025049694}
    - {x: 0.040405963, y: -0.000000051561553, z: 0.000000045447194}
    - {x: 0.032516792, y: -0.000000051137583, z: -0.000000012933195}
    - {x: 0.030463902, y: 0.00000016269207, z: 0.0000000792839}
    - {x: 0.0006324522, y: 0.026866155, z: 0.015001948}
    - {x: 0.074204385, y: 0.005002201, z: -0.00023377323}
    - {x: 0.043930072, y: 0.000000059567498, z: 0.00000018367103}
    - {x: 0.02869547, y: -0.00000009398158, z: -0.00000012649753}
    - {x: 0.022821384, y: -0.00000014365155, z: 0.00000007651614}
    - {x: 0.0021773134, y: 0.007119544, z: 0.016318738}
    - {x: 0.07095288, y: -0.00077883265, z: -0.000997186}
    - {x: 0.043108486, y: -0.00000009950596, z: -0.0000000067041825}
    - {x: 0.033266045, y: -0.00000001320567, z: -0.000000021670374}
    - {x: 0.025892371, y: 0.00000009984198, z: -0.0000000020352908}
    - {x: 0.0005134356, y: -0.0065451227, z: 0.016347693}
    - {x: 0.06587581, y: -0.0017857892, z: -0.00069344096}
    - {x: 0.04069671, y: -0.000000095347104, z: -0.000000022934731}
    - {x: 0.028746964, y: 0.00000010089892, z: 0.000000045306827}
    - {x: 0.022430236, y: 0.00000010846127, z: -0.000000017428562}
    - {x: -0.002478151, y: -0.01898137, z: 0.015213584}
    - {x: 0.0628784, y: -0.0028440945, z: -0.0003315112}
    - {x: 0.030219711, y: -0.00000003418319, z: -0.00000009332872}
    - {x: 0.018186597, y: -0.0000000050220166, z: -0.00000020934549}
    - {x: 0.01801794, y: -0.0000000200012, z: 0.0000000659746}
    - {x: -0.0060591106, y: 0.05628522, z: 0.060063843}
    - {x: -0.04041555, y: -0.043017667, z: 0.019344581}
    - {x: -0.03935372, y: -0.07567404, z: 0.047048334}
    - {x: -0.038340144, y: -0.09098663, z: 0.08257892}
    - {x: -0.031805996, y: -0.08721431, z: 0.12101539}
    boneRotations:
    - {x: -6.123234e-17, y: 1, z: 6.123234e-17, w: -0.00000004371139}
    - {x: -0.078608155, y: -0.92027926, z: 0.3792963, w: -0.055146642}
    - {x: -0.15691666, y: -0.8109243, z: 0.3163923, w: 0.4665564}
    - {x: -0.10599069, y: -0.13542952, z: -0.16062455, w: 0.971918}
    - {x: 0.000000081956394, y: 0.000000014901163, z: -0.15940687, w: 0.987213}
    - {x: -1.3877788e-17, y: -1.3877788e-17, z: -5.551115e-17, w: 1}
    - {x: -0.579653, y: -0.4987229, z: -0.4656608, w: 0.44546372}
    - {x: 0.25301144, y: -0.05963728, z: -0.280757, w: 0.92390704}
    - {x: -0.000000044703473, y: -0.000000029802315, z: -0.38309854, w: 0.9237075}
    - {x: 0.02124509, y: 0.016429713, z: -0.050720043, w: 0.9983518}
    - {x: 6.938894e-18, y: 1.9428903e-16, z: -1.348151e-33, w: 1}
    - {x: -0.5297869, y: -0.48012674, z: -0.4617137, w: 0.5249998}
    - {x: -0.008721916, y: -0.028832128, z: -0.14202303, w: 0.989405}
    - {x: 0.00000016111883, y: 0.000000147149, z: -0.42145973, w: 0.9068472}
    - {x: -0.00000010282224, y: 0.000000077342435, z: -0.24944222, w: 0.96838975}
    - {x: 1.1639192e-17, y: -5.602331e-17, z: -0.040125635, w: 0.9991947}
    - {x: -0.5661268, y: -0.34064105, z: -0.60091394, w: 0.4498518}
    - {x: 0.016374052, y: -0.0053050295, z: -0.15274474, w: 0.98811585}
    - {x: 0.000000053085362, y: -0.00000011920923, z: -0.25177735, w: 0.9677852}
    - {x: 0.00000004543858, y: 0.00000007829677, z: -0.42124534, w: 0.9069468}
    - {x: 6.938894e-18, y: -9.62965e-35, z: -1.3877788e-17, w: 1}
    - {x: -0.51191175, y: -0.25702018, z: -0.695379, w: 0.43397596}
    - {x: 0.20948954, y: -0.09498076, z: -0.24730487, w: 0.94124025}
    - {x: -0.072223485, y: -0.063170806, z: -0.35550475, w: 0.9297363}
    - {x: -0.0197135, y: 0.024837943, z: -0.25686383, w: 0.9659273}
    - {x: 0, y: 0, z: 1.9081958e-17, w: 1}
    - {x: 0.20274544, y: 0.59426665, z: 0.2494411, w: 0.73723847}
    - {x: 0.6235274, y: -0.66380864, z: -0.29373443, w: -0.29033053}
    - {x: 0.6780625, y: -0.6592852, z: -0.26568344, w: -0.18704711}
    - {x: 0.7367927, y: -0.6347571, z: -0.14393571, w: -0.18303718}
    - {x: 0.7584072, y: -0.6393418, z: -0.12667806, w: -0.0036594148}
  applyToSkeletonRoot: 1
